digraph "Graphical Class Hierarchy"
{
 // LATEX_PDF_SIZE
  edge [fontname="Helvetica",fontsize="10",labelfontname="Helvetica",labelfontsize="10"];
  node [fontname="Helvetica",fontsize="10",shape=record];
  rankdir="LR";
  Node15 [label="QMainWindow",height=0.2,width=0.4,color="grey75", fillcolor="white", style="filled",tooltip=" "];
  Node15 -> Node0 [dir="back",color="midnightblue",fontsize="10",style="solid",fontname="Helvetica"];
  Node0 [label="InfoLog",height=0.2,width=0.4,color="black", fillcolor="white", style="filled",URL="$classInfoLog.html",tooltip=" "];
  Node15 -> Node17 [dir="back",color="midnightblue",fontsize="10",style="solid",fontname="Helvetica"];
  Node17 [label="KoZnaui",height=0.2,width=0.4,color="black", fillcolor="white", style="filled",URL="$classKoZnaui.html",tooltip=" "];
  Node15 -> Node18 [dir="back",color="midnightblue",fontsize="10",style="solid",fontname="Helvetica"];
  Node18 [label="MainWindow",height=0.2,width=0.4,color="black", fillcolor="white", style="filled",URL="$classMainWindow.html",tooltip=" "];
  Node15 -> Node19 [dir="back",color="midnightblue",fontsize="10",style="solid",fontname="Helvetica"];
  Node19 [label="PocetniEkran",height=0.2,width=0.4,color="black", fillcolor="white", style="filled",URL="$classPocetniEkran.html",tooltip=" "];
  Node15 -> Node20 [dir="back",color="midnightblue",fontsize="10",style="solid",fontname="Helvetica"];
  Node20 [label="ReckoUI",height=0.2,width=0.4,color="black", fillcolor="white", style="filled",URL="$classReckoUI.html",tooltip=" "];
}
