digraph "Graphical Class Hierarchy"
{
 // LATEX_PDF_SIZE
  edge [fontname="Helvetica",fontsize="10",labelfontname="Helvetica",labelfontsize="10"];
  node [fontname="Helvetica",fontsize="10",shape=record];
  rankdir="LR";
  Node8 [label="QObject",height=0.2,width=0.4,color="grey75", fillcolor="white", style="filled",tooltip=" "];
  Node8 -> Node0 [dir="back",color="midnightblue",fontsize="10",style="solid",fontname="Helvetica"];
  Node0 [label="Lobby",height=0.2,width=0.4,color="black", fillcolor="white", style="filled",URL="$classLobby.html",tooltip=" "];
  Node8 -> Node10 [dir="back",color="midnightblue",fontsize="10",style="solid",fontname="Helvetica"];
  Node10 [label="Player",height=0.2,width=0.4,color="black", fillcolor="white", style="filled",URL="$classPlayer.html",tooltip=" "];
  Node8 -> Node11 [dir="back",color="midnightblue",fontsize="10",style="solid",fontname="Helvetica"];
  Node11 [label="Podrunda",height=0.2,width=0.4,color="black", fillcolor="white", style="filled",URL="$classPodrunda.html",tooltip=" "];
  Node8 -> Node12 [dir="back",color="midnightblue",fontsize="10",style="solid",fontname="Helvetica"];
  Node12 [label="PogodiSta",height=0.2,width=0.4,color="black", fillcolor="white", style="filled",URL="$classPogodiSta.html",tooltip=" "];
  Node8 -> Node13 [dir="back",color="midnightblue",fontsize="10",style="solid",fontname="Helvetica"];
  Node13 [label="Server",height=0.2,width=0.4,color="black", fillcolor="white", style="filled",URL="$classServer.html",tooltip=" "];
  Node8 -> Node14 [dir="back",color="midnightblue",fontsize="10",style="solid",fontname="Helvetica"];
  Node14 [label="Session",height=0.2,width=0.4,color="black", fillcolor="white", style="filled",URL="$classSession.html",tooltip=" "];
}
